format 224
"projet-budget-entreprise"
  revision 7
  modified_by 117 "anjoystick"


  
  // class settings
  default_attribute_visibility private default_relation_visibility private default_operation_visibility public
  
  classdiagramsettings draw_all_relations yes hide_attributes no hide_operations no hide_getset_operations no hide_ports no show_members_full_definition no show_members_visibility no show_members_stereotype no show_members_context no show_members_multiplicity no show_members_initialization no show_attribute_modifiers no member_max_width 127 show_parameter_dir yes show_parameter_name yes package_name_in_tab no class_drawing_mode natural drawing_language uml show_context_mode no auto_label_position yes show_relation_modifiers no show_relation_visibility no show_infonote no shadow yes gradient none show_stereotype_properties no end
  
  classcompositediagramsettings auto_label_position yes draw_all_relations yes shadow yes gradient none end
  
  usecasediagramsettings package_name_in_tab no show_context_mode no auto_label_position yes draw_all_relations yes class_drawing_mode actor shadow yes gradient none show_stereotype_properties no end
  
  sequencediagramsettings show_full_operations_definition no show_class_of_operation no write_horizontally yes instances_drawing_mode natural drawing_language uml draw_all_relations yes shadow yes gradient none show_stereotype_properties no show_class_context_mode no show_msg_context_mode no end
  
  collaborationdiagramsettings show_full_operations_definition no show_class_of_operation no show_hierarchical_rank no write_horizontally yes instances_drawing_mode natural drawing_language uml package_name_in_tab no show_class_pack_context_mode no show_msg_context_mode no draw_all_relations yes shadow yes gradient none show_stereotype_properties no end
  
  objectdiagramsettings write_horizontally yes package_name_in_tab no show_class_pack_context_mode no auto_label_position yes draw_all_relations yes shadow yes gradient none show_stereotype_properties no end
  
  objectcompositediagramsettings auto_label_position yes draw_all_relations yes shadow yes gradient none end
  
  componentdiagramsettings package_name_in_tab no show_context_mode no auto_label_position yes draw_all_relations yes shadow yes gradient none
   draw_component_as_icon no show_component_req_prov no show_component_rea no show_stereotype_properties no end
  
  deploymentdiagramsettings package_name_in_tab no show_context_mode no write_horizontally yes auto_label_position yes draw_all_relations yes shadow yes gradient none
   draw_component_as_icon no show_component_req_prov no show_component_rea no show_stereotype_properties no end
  
  statediagramsettings package_name_in_tab no show_context_mode no auto_label_position yes write_label_horizontally yes show_trans_definition no draw_all_relations yes shadow yes gradient none
   show_activities yes region_horizontally yes drawing_language uml show_stereotype_properties no end
  
  activitydiagramsettings package_name_in_tab no show_context_mode no show_opaque_action_definition no auto_label_position yes write_label_horizontally no draw_all_relations yes shadow yes gradient none
   show_infonote yes drawing_language uml show_stereotype_properties no end
  
  class_color yellow duration_color transparent continuation_color gray note_color blue fragment_color transparent subject_color transparent usecase_color yellow package_color transparent component_color green artifact_color green deploymentnode_color gray state_color yellow stateaction_color transparent activity_color transparent activityregion_color transparent activitypartition_color transparent activityaction_color transparent parameterpin_color white generalization_color black 
  dpi 96
  font_size 10
  diagram_format A4

  image_root_dir ""


  mark_for_import
  
  usecaseview 128135 "UseCase"
    
    usecasediagramsettings end
    
    sequencediagramsettings end
    
    collaborationdiagramsettings end
    
    classdiagramsettings member_max_width 0 end
    
    classcompositediagramsettings end
    
    objectdiagramsettings end
    
    objectcompositediagramsettings end
    
    statediagramsettings
     end
    
    activitydiagramsettings
     end
    usecasediagram 128135 "UseCaseDiagram"
      usecasediagramsettings draw_all_relations no end
      size A0
    end

    class 128135 "Employé"
      visibility package stereotype "actor"
      cpp_decl ""
      java_decl "${comment}${@}${visibility}${static}${final}${abstract}class ${name}${extends}${implements} {
${members}}
"
      php_decl ""
      python_2_2 python_decl ""
      idl_decl ""
      explicit_switch_type ""
      mysql_decl ""
      
      classrelation 128135 // <dependency>
	relation 128135 -_->
	  a public
	    classrelation_ref 128135 // <dependency>
	  b parent class_ref 128391 // MembreComptabilité
      end

      classrelation 128263 // <dependency>
	relation 128263 -_->
	  a public
	    classrelation_ref 128263 // <dependency>
	  b parent class_ref 128391 // MembreComptabilité
      end

      classrelation 128391 // <dependency>
	relation 128391 -_->
	  a public
	    classrelation_ref 128391 // <dependency>
	  b parent class_ref 128519 // MembreDirection
      end

      classrelation 128519 // <generalisation>
	relation 128519 ---|>
	  a public
	    java "${type}"
	    classrelation_ref 128519 // <generalisation>
	  b parent class_ref 128391 // MembreComptabilité
      end

      classrelation 128647 // <generalisation>
	relation 128647 ---|>
	  a public
	    java "${type}"
	    classrelation_ref 128647 // <generalisation>
	  b parent class_ref 128519 // MembreDirection
      end

      classrelation 128775 // <generalisation>
	relation 128775 ---|>
	  a public
	    java "${type}"
	    classrelation_ref 128775 // <generalisation>
	  b parent class_ref 128263 // ChefService
      end

      classrelation 128903 // <generalisation>
	relation 128903 ---|>
	  a public
	    java "${type}"
	    classrelation_ref 128903 // <generalisation>
	  b parent class_ref 128647 // Employee
      end

      classrelation 129031 // <generalisation>
	relation 129031 ---|>
	  a public
	    java "${type}"
	    classrelation_ref 129031 // <generalisation>
	  b parent class_ref 128775 // ServiceAchats
      end
    end

    class 128263 "ChefService"
      visibility package stereotype "actor"
      cpp_decl ""
      java_decl "${comment}${@}${visibility}${static}${final}${abstract}class ${name}${extends}${implements} {
${members}}
"
      php_decl ""
      python_2_2 python_decl ""
      idl_decl ""
      explicit_switch_type ""
      mysql_decl ""
      
      classrelation 129287 // <generalisation>
	relation 129287 ---|>
	  a public
	    java "${type}"
	    classrelation_ref 129287 // <generalisation>
	  b parent class_ref 128775 // ServiceAchats
      end
    end

    class 128391 "MembreComptabilité"
      visibility package stereotype "actor"
      cpp_decl ""
      java_decl "${comment}${@}${visibility}${static}${final}${abstract}class ${name}${extends}${implements} {
${members}}
"
      php_decl ""
      python_2_2 python_decl ""
      idl_decl ""
      explicit_switch_type ""
      mysql_decl ""
      
    end

    class 128519 "MembreDirection"
      visibility package stereotype "actor"
      cpp_decl ""
      java_decl "${comment}${@}${visibility}${static}${final}${abstract}class ${name}${extends}${implements} {
${members}}
"
      php_decl ""
      python_2_2 python_decl ""
      idl_decl ""
      explicit_switch_type ""
      mysql_decl ""
      
    end

    class 128647 "Employee"
      visibility package stereotype "actor"
      cpp_decl ""
      java_decl "${comment}${@}${visibility}${static}${final}${abstract}class ${name}${extends}${implements} {
${members}}
"
      php_decl ""
      python_2_2 python_decl ""
      idl_decl ""
      explicit_switch_type ""
      mysql_decl ""
      
      classrelation 129159 // <generalisation>
	relation 129159 ---|>
	  a public
	    java "${type}"
	    classrelation_ref 129159 // <generalisation>
	  b parent class_ref 128263 // ChefService
      end

      classrelation 129543 // <generalisation>
	relation 129543 ---|>
	  a public
	    java "${type}"
	    classrelation_ref 129543 // <generalisation>
	  b parent class_ref 128775 // ServiceAchats
      end

      classrelation 129671 // <generalisation>
	relation 129671 ---|>
	  a public
	    java "${type}"
	    classrelation_ref 129671 // <generalisation>
	  b parent class_ref 128391 // MembreComptabilité
      end

      classrelation 129799 // <generalisation>
	relation 129799 ---|>
	  a public
	    java "${type}"
	    classrelation_ref 129799 // <generalisation>
	  b parent class_ref 128519 // MembreDirection
      end

      attribute 128135 "id"
	private explicit_type "uint"
	cpp_decl ""
	java_decl ""
	php_decl ""
	python_decl ""
	idl_decl ""
	mysql_decl ""
	MysqlColumn
      end

      attribute 128263 "role"
	private explicit_type "string"
	cpp_decl ""
	java_decl ""
	php_decl ""
	python_decl ""
	idl_decl ""
	mysql_decl ""
	MysqlColumn
      end

      classrelation 132231 // <association>
	relation 131207 ----
	  a role_name "" private
	    java "  ${comment}${@}${visibility}${static}${final}${transient}${volatile}${type} ${name}${value};
"
	    classrelation_ref 132231 // <association>
	  b role_name "" private
	    java "  ${comment}${@}${visibility}${static}${final}${transient}${volatile}${type} ${name}${value};
"
	    classrelation_ref 132359 // <association>
      end

      classrelation 136437 // <association>
	relation 135541 ----
	  a role_name "" private
	    java "  ${comment}${@}${visibility}${static}${final}${transient}${volatile}${type} ${name}${value};
"
	    classrelation_ref 136437 // <association>
	  b role_name "" private
	    java "  ${comment}${@}${visibility}${static}${final}${transient}${volatile}${type} ${name}${value};
"
	    classrelation_ref 136565 // <association>
      end
    end

    usecase 128135 "Déclencher commande"
      
      usecasediagramsettings end
      
      sequencediagramsettings end
      
      collaborationdiagramsettings end
      
      classdiagramsettings member_max_width 0 end
      
      classcompositediagramsettings end
      
      objectdiagramsettings end
      
      objectcompositediagramsettings end
      
      statediagramsettings
       end
      
      activitydiagramsettings
       end
      simplerelation 128135
	-_->
	  stereotype "include"
	  on usecase_ref 128263 // Matériel
      end

      simplerelation 128263
	-_->
	  stereotype "include"
	  on usecase_ref 128391 // Logiciel
      end
    end

    usecase 128263 "Matériel"
      
      usecasediagramsettings end
      
      sequencediagramsettings end
      
      collaborationdiagramsettings end
      
      classdiagramsettings member_max_width 0 end
      
      classcompositediagramsettings end
      
      objectdiagramsettings end
      
      objectcompositediagramsettings end
      
      statediagramsettings
       end
      
      activitydiagramsettings
       end
    end

    usecase 128391 "Logiciel"
      
      usecasediagramsettings end
      
      sequencediagramsettings end
      
      collaborationdiagramsettings end
      
      classdiagramsettings member_max_width 0 end
      
      classcompositediagramsettings end
      
      objectdiagramsettings end
      
      objectcompositediagramsettings end
      
      statediagramsettings
       end
      
      activitydiagramsettings
       end
    end

    usecase 128519 "Valider la commande"
      
      usecasediagramsettings end
      
      sequencediagramsettings end
      
      collaborationdiagramsettings end
      
      classdiagramsettings member_max_width 0 end
      
      classcompositediagramsettings end
      
      objectdiagramsettings end
      
      objectcompositediagramsettings end
      
      statediagramsettings
       end
      
      activitydiagramsettings
       end
      simplerelation 128391
	-_->
	  stereotype "include"
	  on usecase_ref 128775 // Payer la commande
      end
    end

    usecase 128647 "Refuser la commande"
      
      usecasediagramsettings end
      
      sequencediagramsettings end
      
      collaborationdiagramsettings end
      
      classdiagramsettings member_max_width 0 end
      
      classcompositediagramsettings end
      
      objectdiagramsettings end
      
      objectcompositediagramsettings end
      
      statediagramsettings
       end
      
      activitydiagramsettings
       end
    end

    class 128775 "ServiceAchats"
      visibility package stereotype "actor"
      cpp_decl ""
      java_decl "${comment}${@}${visibility}${static}${final}${abstract}class ${name}${extends}${implements} {
${members}}
"
      php_decl ""
      python_2_2 python_decl ""
      idl_decl ""
      explicit_switch_type ""
      mysql_decl ""
      
      classrelation 129415 // <generalisation>
	relation 129415 ---|>
	  a public
	    java "${type}"
	    classrelation_ref 129415 // <generalisation>
	  b parent class_ref 128391 // MembreComptabilité
      end
    end

    usecase 128775 "Payer la commande"
      
      usecasediagramsettings end
      
      sequencediagramsettings end
      
      collaborationdiagramsettings end
      
      classdiagramsettings member_max_width 0 end
      
      classcompositediagramsettings end
      
      objectdiagramsettings end
      
      objectcompositediagramsettings end
      
      statediagramsettings
       end
      
      activitydiagramsettings
       end
      simplerelation 135175
	-_->
	  stereotype "include"
	  on usecase_ref 135687 // Débit Budget Service
      end

      simplerelation 135303
	-_->
	  stereotype "include"
	  on usecase_ref 135687 // Débit Budget Service
      end
    end

    usecase 128903 "Afficher l'historique"
      
      usecasediagramsettings end
      
      sequencediagramsettings end
      
      collaborationdiagramsettings end
      
      classdiagramsettings member_max_width 0 end
      
      classcompositediagramsettings end
      
      objectdiagramsettings end
      
      objectcompositediagramsettings end
      
      statediagramsettings
       end
      
      activitydiagramsettings
       end
      simplerelation 128519
	-_->
	  stereotype "include"
	  on usecase_ref 129031 // Recettes
      end

      simplerelation 128647
	-_->
	  stereotype "include"
	  on usecase_ref 129159 // Dépenses
      end
    end

    usecase 129031 "Recettes"
      
      usecasediagramsettings end
      
      sequencediagramsettings end
      
      collaborationdiagramsettings end
      
      classdiagramsettings member_max_width 0 end
      
      classcompositediagramsettings end
      
      objectdiagramsettings end
      
      objectcompositediagramsettings end
      
      statediagramsettings
       end
      
      activitydiagramsettings
       end
    end

    usecase 129159 "Dépenses"
      
      usecasediagramsettings end
      
      sequencediagramsettings end
      
      collaborationdiagramsettings end
      
      classdiagramsettings member_max_width 0 end
      
      classcompositediagramsettings end
      
      objectdiagramsettings end
      
      objectcompositediagramsettings end
      
      statediagramsettings
       end
      
      activitydiagramsettings
       end
    end

    usecase 128020 "Visualiser le budget"
      
      usecasediagramsettings end
      
      sequencediagramsettings end
      
      collaborationdiagramsettings end
      
      classdiagramsettings member_max_width 0 end
      
      classcompositediagramsettings end
      
      objectdiagramsettings end
      
      objectcompositediagramsettings end
      
      statediagramsettings
       end
      
      activitydiagramsettings
       end
    end

    usecase 135687 "Débit Budget Service"
      
      usecasediagramsettings end
      
      sequencediagramsettings end
      
      collaborationdiagramsettings end
      
      classdiagramsettings member_max_width 0 end
      
      classcompositediagramsettings end
      
      objectdiagramsettings end
      
      objectcompositediagramsettings end
      
      statediagramsettings
       end
      
      activitydiagramsettings
       end
      simplerelation 135431
	-_->
	  stereotype "include"
	  on usecase_ref 135815 // Débit Trésorerie Entreprise
      end
    end

    usecase 135815 "Débit Trésorerie Entreprise"
      
      usecasediagramsettings end
      
      sequencediagramsettings end
      
      collaborationdiagramsettings end
      
      classdiagramsettings member_max_width 0 end
      
      classcompositediagramsettings end
      
      objectdiagramsettings end
      
      objectcompositediagramsettings end
      
      statediagramsettings
       end
      
      activitydiagramsettings
       end
    end
  end

  classview 128135 "DiagrammeClasse"
    
    classdiagramsettings show_members_full_definition yes show_members_visibility yes show_members_stereotype yes member_max_width 0 end
    
    classcompositediagramsettings end
    
    collaborationdiagramsettings end
    
    objectdiagramsettings end
    
    objectcompositediagramsettings end
    
    sequencediagramsettings end
    
    statediagramsettings
     end
    
    
    activitydiagramsettings
     end
    associated_deployment_view deploymentview_ref 128135 // DiagrammeClasse
    classdiagram 128263 "DiagrammeBudget"
      classdiagramsettings draw_all_relations no member_max_width 0 end
      size A0
    end

    class 128903 "Order"
      visibility package 
      cpp_decl ""
      java_decl "${comment}${@}${visibility}${static}${final}${abstract}class ${name}${extends}${implements} {
${members}}
"
      php_decl ""
      python_2_2 python_decl ""
      idl_decl ""
      explicit_switch_type ""
      mysql_decl ""
      
      attribute 128391 "id"
	private explicit_type "uint"
	cpp_decl ""
	java_decl "  ${comment}${@}${visibility}${static}${final}${transient}${volatile}${type} ${name}${value};
"
	php_decl ""
	python_decl ""
	idl_decl ""
	mysql_decl ""
	MysqlColumn
      end

      attribute 128519 "category"
	private explicit_type "string"
	cpp_decl ""
	java_decl "  ${comment}${@}${visibility}${static}${final}${transient}${volatile}${type} ${name}${value};
"
	php_decl ""
	python_decl ""
	idl_decl ""
	mysql_decl ""
	MysqlColumn
      end

      attribute 128647 "name"
	private explicit_type "string"
	cpp_decl ""
	java_decl "  ${comment}${@}${visibility}${static}${final}${transient}${volatile}${type} ${name}${value};
"
	php_decl ""
	python_decl ""
	idl_decl ""
	mysql_decl ""
	MysqlColumn
      end

      attribute 128775 "listItem"
	private explicit_type ""
	stereotype "list"
	cpp_decl ""
	java_decl "  ${comment}${@}${visibility}${static}${final}${transient}${volatile}${type} ${name}${value};
"
	php_decl ""
	python_decl ""
	idl_decl ""
	mysql_decl ""
	MysqlColumn
      end

      attribute 128903 "total"
	private explicit_type "float"
	cpp_decl ""
	java_decl "  ${comment}${@}${visibility}${static}${final}${transient}${volatile}${type} ${name}${value};
"
	php_decl ""
	python_decl ""
	idl_decl ""
	mysql_decl ""
	MysqlColumn
      end

      attribute 129031 "date"
	private explicit_type "Date"
	cpp_decl ""
	java_decl "  ${comment}${@}${visibility}${static}${final}${transient}${volatile}${type} ${name}${value};
"
	php_decl ""
	python_decl ""
	idl_decl ""
	mysql_decl ""
	MysqlColumn
      end

      classrelation 129927 // <association>
	relation 129927 ----
	  a role_name "" private
	    java "  ${comment}${@}${visibility}${static}${final}${transient}${volatile}${type} ${name}${value};
"
	    classrelation_ref 129927 // <association>
	  b role_name "" private
	    java "  ${comment}${@}${visibility}${static}${final}${transient}${volatile}${type} ${name}${value};
"
	    classrelation_ref 130055 // <association>
      end

      classrelation 130055 // <association>
	relation_ref 129927 // <association>
      end

      classrelation 130183 // <association>
	relation 130055 ----
	  a role_name "" private
	    java "  ${comment}${@}${visibility}${static}${final}${transient}${volatile}${type} ${name}${value};
"
	    classrelation_ref 130183 // <association>
	  b role_name "" private
	    java "  ${comment}${@}${visibility}${static}${final}${transient}${volatile}${type} ${name}${value};
"
	    classrelation_ref 130311 // <association>
      end

      classrelation 130439 // <association>
	relation 130183 ----
	  a role_name "" private
	    java "  ${comment}${@}${visibility}${static}${final}${transient}${volatile}${type} ${name}${value};
"
	    classrelation_ref 130439 // <association>
	  b role_name "" private
	    java "  ${comment}${@}${visibility}${static}${final}${transient}${volatile}${type} ${name}${value};
"
	    classrelation_ref 130567 // <association>
      end

      classrelation 130695 // <generalisation>
	relation 130311 ---|>
	  a public
	    java "${type}"
	    classrelation_ref 130695 // <generalisation>
	  b parent class_ref 129159 // Historique
      end

      classrelation 130823 // <unidirectional association>
	relation 130439 --->
	  a role_name "" private
	    java "  ${comment}${@}${visibility}${static}${final}${transient}${volatile}${type} ${name}${value};
"
	    classrelation_ref 130823 // <unidirectional association>
	  b parent class_ref 129159 // Historique
      end

      classrelation 130951 // <composition>
	relation 130567 *---
	  a role_name "" private
	    java "  ${comment}${@}${visibility}${static}${final}${transient}${volatile}${type} ${name}${value};
"
	    classrelation_ref 130951 // <composition>
	  b role_name "" private
	    java "  ${comment}${@}${visibility}${static}${final}${transient}${volatile}${type} ${name}${value};
"
	    classrelation_ref 131079 // <composition>
      end

      classrelation 131207 // <association>
	relation 130695 ----
	  a role_name "" private
	    java "  ${comment}${@}${visibility}${static}${final}${transient}${volatile}${type} ${name}${value};
"
	    classrelation_ref 131207 // <association>
	  b role_name "" private
	    java "  ${comment}${@}${visibility}${static}${final}${transient}${volatile}${type} ${name}${value};
"
	    classrelation_ref 131335 // <association>
      end

      classrelation 132359 // <association>
	relation_ref 131207 // <association>
      end

      attribute 131847 "status"
	private explicit_type "bool"
	cpp_decl ""
	java_decl "  ${comment}${@}${visibility}${static}${final}${transient}${volatile}${type} ${name}${value};
"
	php_decl ""
	python_decl ""
	idl_decl ""
	mysql_decl ""
	MysqlColumn
      end

      attribute 134645 "quantity"
	private explicit_type "int"
	cpp_decl ""
	java_decl "  ${comment}${@}${visibility}${static}${final}${transient}${volatile}${type} ${name}${value};
"
	php_decl ""
	python_decl ""
	idl_decl ""
	mysql_decl ""
	MysqlColumn
      end

      classrelation 134901 // <association>
	relation 134773 ----
	  a role_name "" private
	    java "  ${comment}${@}${visibility}${static}${final}${transient}${volatile}${type} ${name}${value};
"
	    classrelation_ref 134901 // <association>
	  b role_name "" private
	    java "  ${comment}${@}${visibility}${static}${final}${transient}${volatile}${type} ${name}${value};
"
	    classrelation_ref 135029 // <association>
      end

      classrelation 135157 // <association>
	relation 134901 ----
	  a role_name "" private
	    java "  ${comment}${@}${visibility}${static}${final}${transient}${volatile}${type} ${name}${value};
"
	    classrelation_ref 135157 // <association>
	  b role_name "" private
	    java "  ${comment}${@}${visibility}${static}${final}${transient}${volatile}${type} ${name}${value};
"
	    classrelation_ref 135285 // <association>
      end

      classrelation 135413 // <association>
	relation 135029 ----
	  a role_name "" private
	    java "  ${comment}${@}${visibility}${static}${final}${transient}${volatile}${type} ${name}${value};
"
	    classrelation_ref 135413 // <association>
	  b role_name "" private
	    java "  ${comment}${@}${visibility}${static}${final}${transient}${volatile}${type} ${name}${value};
"
	    classrelation_ref 135541 // <association>
      end

      classrelation 135669 // <association>
	relation 135157 ----
	  a role_name "" private
	    java "  ${comment}${@}${visibility}${static}${final}${transient}${volatile}${type} ${name}${value};
"
	    classrelation_ref 135669 // <association>
	  b role_name "" private
	    java "  ${comment}${@}${visibility}${static}${final}${transient}${volatile}${type} ${name}${value};
"
	    classrelation_ref 135797 // <association>
      end

      classrelation 136181 // <association>
	relation 135413 ----
	  a role_name "" private
	    java "  ${comment}${@}${visibility}${static}${final}${transient}${volatile}${type} ${name}${value};
"
	    classrelation_ref 136181 // <association>
	  b role_name "" private
	    java "  ${comment}${@}${visibility}${static}${final}${transient}${volatile}${type} ${name}${value};
"
	    classrelation_ref 136309 // <association>
      end

      classrelation 137717 // <directional composition>
	relation 136565 *-->
	  a role_name "" private
	    java "  ${comment}${@}${visibility}${static}${final}${transient}${volatile}${type} ${name}${value};
"
	    classrelation_ref 137717 // <directional composition>
	  b parent class_ref 129287 // Item
      end

      classrelation 137845 // <composition>
	relation 136693 *---
	  a role_name "" private
	    java "  ${comment}${@}${visibility}${static}${final}${transient}${volatile}${type} ${name}${value};
"
	    classrelation_ref 137845 // <composition>
	  b role_name "" private
	    java "  ${comment}${@}${visibility}${static}${final}${transient}${volatile}${type} ${name}${value};
"
	    classrelation_ref 137973 // <composition>
      end

      classrelation 138101 // <directional composition>
	relation 136821 *-->
	  a role_name "" private
	    java "  ${comment}${@}${visibility}${static}${final}${transient}${volatile}${type} ${name}${value};
"
	    classrelation_ref 138101 // <directional composition>
	  b parent class_ref 129159 // Historique
      end
    end

    class 129159 "Historique"
      visibility package 
      cpp_decl ""
      java_decl "${comment}${@}${visibility}${static}${final}${abstract}class ${name}${extends}${implements} {
${members}}
"
      php_decl ""
      python_2_2 python_decl ""
      idl_decl ""
      explicit_switch_type ""
      mysql_decl ""
      
      attribute 129671 "id"
	private explicit_type "uint"
	cpp_decl ""
	java_decl "  ${comment}${@}${visibility}${static}${final}${transient}${volatile}${type} ${name}${value};
"
	php_decl ""
	python_decl ""
	idl_decl ""
	mysql_decl ""
	MysqlColumn
      end

      attribute 129799 "date"
	private explicit_type "Date"
	cpp_decl ""
	java_decl "  ${comment}${@}${visibility}${static}${final}${transient}${volatile}${type} ${name}${value};
"
	php_decl ""
	python_decl ""
	idl_decl ""
	mysql_decl ""
	MysqlColumn
      end

      attribute 129927 "categoryServiceId"
	private explicit_type "uint"
	cpp_decl ""
	java_decl "  ${comment}${@}${visibility}${static}${final}${transient}${volatile}${type} ${name}${value};
"
	php_decl ""
	python_decl ""
	idl_decl ""
	mysql_decl ""
	MysqlColumn
      end

      classrelation 131079 // <composition>
	relation_ref 130567 // <composition>
      end

      classrelation 131335 // <association>
	relation_ref 130695 // <association>
      end

      attribute 130951 "income"
	private explicit_type "float"
	cpp_decl ""
	java_decl "  ${comment}${@}${visibility}${static}${final}${transient}${volatile}${type} ${name}${value};
"
	php_decl ""
	python_decl ""
	idl_decl ""
	mysql_decl ""
	MysqlColumn
      end

      attribute 131079 "expenses"
	private explicit_type "float"
	cpp_decl ""
	java_decl "  ${comment}${@}${visibility}${static}${final}${transient}${volatile}${type} ${name}${value};
"
	php_decl ""
	python_decl ""
	idl_decl ""
	mysql_decl ""
	MysqlColumn
      end

      attribute 131463 "orderId"
	private explicit_type "uint"
	cpp_decl ""
	java_decl "  ${comment}${@}${visibility}${static}${final}${transient}${volatile}${type} ${name}${value};
"
	php_decl ""
	python_decl ""
	idl_decl ""
	mysql_decl ""
	MysqlColumn
      end

      classrelation 131719 // <composition>
	relation 130951 *---
	  a role_name "" private
	    java "  ${comment}${@}${visibility}${static}${final}${transient}${volatile}${type} ${name}${value};
"
	    classrelation_ref 131719 // <composition>
	  b role_name "" private
	    java "  ${comment}${@}${visibility}${static}${final}${transient}${volatile}${type} ${name}${value};
"
	    classrelation_ref 131847 // <composition>
      end

      classrelation 131975 // <association>
	relation 131079 ----
	  a role_name "" private
	    java "  ${comment}${@}${visibility}${static}${final}${transient}${volatile}${type} ${name}${value};
"
	    classrelation_ref 131975 // <association>
	  b role_name "" private
	    java "  ${comment}${@}${visibility}${static}${final}${transient}${volatile}${type} ${name}${value};
"
	    classrelation_ref 132103 // <association>
      end

      classrelation 134645 // <association>
	relation 134645 ----
	  a role_name "" private
	    java "  ${comment}${@}${visibility}${static}${final}${transient}${volatile}${type} ${name}${value};
"
	    classrelation_ref 134645 // <association>
	  b role_name "" private
	    java "  ${comment}${@}${visibility}${static}${final}${transient}${volatile}${type} ${name}${value};
"
	    classrelation_ref 134773 // <association>
      end

      classrelation 135285 // <association>
	relation_ref 134901 // <association>
      end

      classrelation 135925 // <association>
	relation 135285 ----
	  a role_name "" private
	    java "  ${comment}${@}${visibility}${static}${final}${transient}${volatile}${type} ${name}${value};
"
	    classrelation_ref 135925 // <association>
	  b role_name "" private
	    java "  ${comment}${@}${visibility}${static}${final}${transient}${volatile}${type} ${name}${value};
"
	    classrelation_ref 136053 // <association>
      end

      classrelation 137973 // <composition>
	relation_ref 136693 // <composition>
      end
    end

    class 129287 "Item"
      visibility package 
      cpp_decl ""
      java_decl "${comment}${@}${visibility}${static}${final}${abstract}class ${name}${extends}${implements} {
${members}}
"
      php_decl ""
      python_2_2 python_decl ""
      idl_decl ""
      explicit_switch_type ""
      mysql_decl ""
      
      attribute 130183 "id"
	private explicit_type "uint"
	cpp_decl ""
	java_decl "  ${comment}${@}${visibility}${static}${final}${transient}${volatile}${type} ${name}${value};
"
	php_decl ""
	python_decl ""
	idl_decl ""
	mysql_decl ""
	MysqlColumn
      end

      attribute 130311 "price"
	private explicit_type "float"
	cpp_decl ""
	java_decl "  ${comment}${@}${visibility}${static}${final}${transient}${volatile}${type} ${name}${value};
"
	php_decl ""
	python_decl ""
	idl_decl ""
	mysql_decl ""
	MysqlColumn
      end

      classrelation 130311 // <association>
	relation_ref 130055 // <association>
      end

      attribute 131207 "name"
	private explicit_type "string"
	cpp_decl ""
	java_decl "  ${comment}${@}${visibility}${static}${final}${transient}${volatile}${type} ${name}${value};
"
	php_decl ""
	python_decl ""
	idl_decl ""
	mysql_decl ""
	MysqlColumn
      end

      attribute 131335 "categoryId"
	private explicit_type "uint"
	cpp_decl ""
	java_decl "  ${comment}${@}${visibility}${static}${final}${transient}${volatile}${type} ${name}${value};
"
	php_decl ""
	python_decl ""
	idl_decl ""
	mysql_decl ""
	MysqlColumn
      end

      classrelation 131591 // <association>
	relation_ref 130823 // <association>
      end

      classrelation 135797 // <association>
	relation_ref 135157 // <association>
      end

      classrelation 136309 // <association>
	relation_ref 135413 // <association>
      end
    end

    class 129415 "Category"
      visibility package 
      cpp_decl ""
      java_decl "${comment}${@}${visibility}${static}${final}${abstract}class ${name}${extends}${implements} {
${members}}
"
      php_decl ""
      python_2_2 python_decl ""
      idl_decl ""
      explicit_switch_type ""
      mysql_decl ""
      
      attribute 130567 "id"
	private explicit_type "uint"
	cpp_decl ""
	java_decl "  ${comment}${@}${visibility}${static}${final}${transient}${volatile}${type} ${name}${value};
"
	php_decl ""
	python_decl ""
	idl_decl ""
	mysql_decl ""
	MysqlColumn
      end

      attribute 130695 "name"
	private explicit_type "string"
	cpp_decl ""
	java_decl "  ${comment}${@}${visibility}${static}${final}${transient}${volatile}${type} ${name}${value};
"
	php_decl ""
	python_decl ""
	idl_decl ""
	mysql_decl ""
	MysqlColumn
      end

      classrelation 130567 // <association>
	relation_ref 130183 // <association>
      end

      classrelation 131463 // <association>
	relation 130823 ----
	  a role_name "" private
	    java "  ${comment}${@}${visibility}${static}${final}${transient}${volatile}${type} ${name}${value};
"
	    classrelation_ref 131463 // <association>
	  b role_name "" private
	    java "  ${comment}${@}${visibility}${static}${final}${transient}${volatile}${type} ${name}${value};
"
	    classrelation_ref 131591 // <association>
      end

      classrelation 135541 // <association>
	relation_ref 135029 // <association>
      end
    end

    class 129543 "CategoryService"
      visibility package 
      cpp_decl ""
      java_decl "${comment}${@}${visibility}${static}${final}${abstract}class ${name}${extends}${implements} {
${members}}
"
      php_decl ""
      python_2_2 python_decl ""
      idl_decl ""
      explicit_switch_type ""
      mysql_decl ""
      
      attribute 131591 "id"
	private explicit_type "uint"
	cpp_decl ""
	java_decl "  ${comment}${@}${visibility}${static}${final}${transient}${volatile}${type} ${name}${value};
"
	php_decl ""
	python_decl ""
	idl_decl ""
	mysql_decl ""
	MysqlColumn
      end

      attribute 131719 "name"
	private explicit_type "string"
	cpp_decl ""
	java_decl "  ${comment}${@}${visibility}${static}${final}${transient}${volatile}${type} ${name}${value};
"
	php_decl ""
	python_decl ""
	idl_decl ""
	mysql_decl ""
	MysqlColumn
      end

      classrelation 131847 // <composition>
	relation_ref 130951 // <composition>
      end

      classrelation 132103 // <association>
	relation_ref 131079 // <association>
      end

      classrelation 136053 // <association>
	relation_ref 135285 // <association>
      end

      attribute 148341 "budgetId"
	private explicit_type "uint"
	cpp_decl ""
	java_decl "  ${comment}${@}${visibility}${static}${final}${transient}${volatile}${type} ${name}${value};
"
	php_decl ""
	python_decl ""
	idl_decl ""
	mysql_decl ""
	MysqlColumn
      end

      classrelation 144757 // <association>
	relation_ref 143349 // <association>
      end
    end

    class 134645 "HistoriqueDao"
      visibility package 
      cpp_decl ""
      java_decl "${comment}${@}${visibility}${static}${final}${abstract}class ${name}${extends}${implements} {
${members}}
"
      php_decl ""
      python_2_2 python_decl ""
      idl_decl ""
      explicit_switch_type ""
      mysql_decl ""
      
      operation 134773 "findHistoOfExpenses"
	public explicit_return_type "expenses"
	nparams 2
	  param in name "serviceId" type class_ref 129543 // CategoryService
	  param in name "listOrder" explicit_type "List<Order>"
	
	java_def "  ${comment}${@}${visibility}${final}${static}${abstract}${synchronized}${type} ${name}${(}${t0} ${p0}, ${t1} ${p1}${)}${throws}${staticnl}{
  ${body}}
"
	
	
	
      end

      operation 134645 "findHistoOfIncome"
	public explicit_return_type "income"
	nparams 1
	  param in name "externInfoId" explicit_type "uint"
	
	java_def "  ${comment}${@}${visibility}${final}${static}${abstract}${synchronized}${type} ${name}${(}${t0} ${p0}${)}${throws}${staticnl}{
  ${body}}
"
	
	
	
      end

      operation 134901 "findByDate"
	public explicit_return_type "list<Historique>"
	nparams 1
	  param in name "dateId" explicit_type "uint"
	
	java_def "  ${comment}${@}${visibility}${final}${static}${abstract}${synchronized}${type} ${name}${(}${t0} ${p0}${)}${throws}${staticnl}{
  ${body}}
"
	
	
	
      end

      operation 135029 "findById"
	public return_type class_ref 129159 // Historique
	nparams 1
	  param in name "histoId" explicit_type "uint"
	
	java_def "  ${comment}${@}${visibility}${final}${static}${abstract}${synchronized}${type} ${name}${(}${t0} ${p0}${)}${throws}${staticnl}{
  ${body}}
"
	
	
	
      end

      operation 135157 "deleteById"
	public explicit_return_type "void"
	nparams 1
	  param in name "histoID" explicit_type "uint"
	
	java_def "  ${comment}${@}${visibility}${final}${static}${abstract}${synchronized}${type} ${name}${(}${t0} ${p0}${)}${throws}${staticnl}{
  ${body}}
"
	
	
	
      end

      operation 135285 "findAll"
	public explicit_return_type "List<Historique>"
	nparams 0
	
	java_def "  ${comment}${@}${visibility}${final}${static}${abstract}${synchronized}${type} ${name}${(}${)}${throws}${staticnl}{
  ${body}}
"
	
	
	
      end

      operation 135413 "findByCategory"
	public explicit_return_type "List<Historique>"
	nparams 1
	  param in name "categoryServiceId" explicit_type "uint"
	
	java_def "  ${comment}${@}${visibility}${final}${static}${abstract}${synchronized}${type} ${name}${(}${t0} ${p0}${)}${throws}${staticnl}{
  ${body}}
"
	
	
	
      end

      classrelation 134773 // <association>
	relation_ref 134645 // <association>
      end

      classrelation 137589 // <realization>
	relation 136437 -_-|>
	  a public
	    java "${type}"
	    classrelation_ref 137589 // <realization>
	  b parent class_ref 129159 // Historique
      end
    end

    class 134773 "OrderDao"
      visibility package 
      cpp_decl ""
      java_decl "${comment}${@}${visibility}${static}${final}${abstract}class ${name}${extends}${implements} {
${members}}
"
      php_decl ""
      python_2_2 python_decl ""
      idl_decl ""
      explicit_switch_type ""
      mysql_decl ""
      
      operation 135541 "findAll"
	public explicit_return_type "List<Commande>"
	nparams 0
	
	java_def "  ${comment}${@}${visibility}${final}${static}${abstract}${synchronized}${type} ${name}${(}${)}${throws}${staticnl}{
  ${body}}
"
	
	
	
      end

      operation 135669 "findById"
	public return_type class_ref 128903 // Order
	nparams 1
	  param in name "commandeId" explicit_type "uint"
	
	java_def "  ${comment}${@}${visibility}${final}${static}${abstract}${synchronized}${type} ${name}${(}${t0} ${p0}${)}${throws}${staticnl}{
  ${body}}
"
	
	
	
      end

      operation 135797 "findByCategory"
	public explicit_return_type "List<Commande>"
	nparams 1
	  param in name "categoryId" explicit_type "uint"
	
	java_def "  ${comment}${@}${visibility}${final}${static}${abstract}${synchronized}${type} ${name}${(}${t0} ${p0}${)}${throws}${staticnl}{
  ${body}}
"
	
	
	
      end

      operation 135925 "findByDate"
	public explicit_return_type "List<Commande>"
	nparams 1
	  param in name "dateId" explicit_type "uint"
	
	java_def "  ${comment}${@}${visibility}${final}${static}${abstract}${synchronized}${type} ${name}${(}${t0} ${p0}${)}${throws}${staticnl}{
  ${body}}
"
	
	
	
      end

      operation 136053 "addOrder"
	public explicit_return_type "void"
	nparams 1
	  param in name "order" type class_ref 128903 // Order
	
	java_def "  ${comment}${@}${visibility}${final}${static}${abstract}${synchronized}${type} ${name}${(}${t0} ${p0}${)}${throws}${staticnl}{
  ${body}}
"
	
	
	
      end

      operation 136181 "deleteOrder"
	public explicit_return_type "void"
	nparams 1
	  param in name "orderId" explicit_type "uint"
	
	java_def "  ${comment}${@}${visibility}${final}${static}${abstract}${synchronized}${type} ${name}${(}${t0} ${p0}${)}${throws}${staticnl}{
  ${body}}
"
	
	
	
      end

      operation 136309 "updateOrder"
	public explicit_return_type "void"
	nparams 1
	  param in name "order" type class_ref 128903 // Order
	
	java_def "  ${comment}${@}${visibility}${final}${static}${abstract}${synchronized}${type} ${name}${(}${t0} ${p0}${)}${throws}${staticnl}{
  ${body}}
"
	
	
	
      end

      operation 136437 "makeTotal"
	public explicit_return_type "void"
	nparams 2
	  param in name "order" type class_ref 128903 // Order
	  param in name "item" type class_ref 129287 // Item
	
	java_def "  ${comment}${@}${visibility}${final}${static}${abstract}${synchronized}${type} ${name}${(}${t0} ${p0}, ${t1} ${p1}${)}${throws}${staticnl}{
  ${body}}
"
	
	
	
      end

      operation 136565 "isValidate"
	public explicit_return_type "bool"
	nparams 1
	  param in name "role" type class_ref 128647 // Employee
	
	java_def "  ${comment}${@}${visibility}${final}${static}${abstract}${synchronized}${type} ${name}${(}${t0} ${p0}${)}${throws}${staticnl}{
  ${body}}
"
	
	
	
      end

      operation 136693 "payOrder"
	public explicit_return_type "bool"
	nparams 1
	  param in name "role" type class_ref 128647 // Employee
	
	java_def "  ${comment}${@}${visibility}${final}${static}${abstract}${synchronized}${type} ${name}${(}${t0} ${p0}${)}${throws}${staticnl}{
  ${body}}
"
	
	
	
      end

      classrelation 135029 // <association>
	relation_ref 134773 // <association>
      end

      classrelation 136693 // <association>
	relation 135669 ----
	  a role_name "" private
	    java "  ${comment}${@}${visibility}${static}${final}${transient}${volatile}${type} ${name}${value};
"
	    classrelation_ref 136693 // <association>
	  b role_name "" private
	    java "  ${comment}${@}${visibility}${static}${final}${transient}${volatile}${type} ${name}${value};
"
	    classrelation_ref 136821 // <association>
      end

      classrelation 137077 // <realization>
	relation 135925 -_-|>
	  a public
	    java "${type}"
	    classrelation_ref 137077 // <realization>
	  b parent class_ref 128903 // Order
      end
    end

    class 134901 "EmployeeDao"
      visibility package 
      cpp_decl ""
      java_decl "${comment}${@}${visibility}${static}${final}${abstract}class ${name}${extends}${implements} {
${members}}
"
      php_decl ""
      python_2_2 python_decl ""
      idl_decl ""
      explicit_switch_type ""
      mysql_decl ""
      
      operation 136821 "findAll"
	public explicit_return_type "List<Employee>"
	nparams 0
	
	java_def "  ${comment}${@}${visibility}${final}${static}${abstract}${synchronized}${type} ${name}${(}${)}${throws}${staticnl}{
  ${body}}
"
	
	
	
      end

      operation 136949 "findById"
	public return_type class_ref 128647 // Employee
	nparams 1
	  param in name "employeeId" explicit_type "uint"
	
	java_def "  ${comment}${@}${visibility}${final}${static}${abstract}${synchronized}${type} ${name}${(}${t0} ${p0}${)}${throws}${staticnl}{
  ${body}}
"
	
	
	
      end

      operation 137077 "findByRole"
	public return_type class_ref 128647 // Employee
	nparams 1
	  param in name "employeeRole" explicit_type "string"
	
	java_def "  ${comment}${@}${visibility}${final}${static}${abstract}${synchronized}${type} ${name}${(}${t0} ${p0}${)}${throws}${staticnl}{
  ${body}}
"
	
	
	
      end

      operation 137205 "addEmployee"
	public explicit_return_type "void"
	nparams 1
	  param in name "employee" type class_ref 128647 // Employee
	
	java_def "  ${comment}${@}${visibility}${final}${static}${abstract}${synchronized}${type} ${name}${(}${t0} ${p0}${)}${throws}${staticnl}{
  ${body}}
"
	
	
	
      end

      operation 137333 "removeEmployee"
	public explicit_return_type "void"
	nparams 1
	  param in name "employeeId" explicit_type "uint"
	
	java_def "  ${comment}${@}${visibility}${final}${static}${abstract}${synchronized}${type} ${name}${(}${t0} ${p0}${)}${throws}${staticnl}{
  ${body}}
"
	
	
	
      end

      classrelation 136565 // <association>
	relation_ref 135541 // <association>
      end

      classrelation 137333 // <realization>
	relation 136181 -_-|>
	  a public
	    java "${type}"
	    classrelation_ref 137333 // <realization>
	  b parent class_ref 128647 // Employee
      end

      operation 138101 "updateEmployee"
	public explicit_return_type "void"
	nparams 1
	  param in name "employee" type class_ref 128647 // Employee
	
	java_def "  ${comment}${@}${visibility}${final}${static}${abstract}${synchronized}${type} ${name}${(}${t0} ${p0}${)}${throws}${staticnl}{
  ${body}}
"
	
	
	
      end
    end

    class 135029 "HistoriqueController"
      visibility package 
      cpp_decl ""
      java_decl "${comment}${@}${visibility}${static}${final}${abstract}class ${name}${extends}${implements} {
${members}}
"
      php_decl ""
      python_2_2 python_decl ""
      idl_decl ""
      explicit_switch_type ""
      mysql_decl ""
      
      classrelation 137461 // <generalisation>
	relation 136309 ---|>
	  a public
	    java "${type}"
	    classrelation_ref 137461 // <generalisation>
	  b parent class_ref 134645 // HistoriqueDao
      end
    end

    class 135157 "EmployeeController"
      visibility package 
      cpp_decl ""
      java_decl "${comment}${@}${visibility}${static}${final}${abstract}class ${name}${extends}${implements} {
${members}}
"
      php_decl ""
      python_2_2 python_decl ""
      idl_decl ""
      explicit_switch_type ""
      mysql_decl ""
      
      classrelation 137205 // <generalisation>
	relation 136053 ---|>
	  a public
	    java "${type}"
	    classrelation_ref 137205 // <generalisation>
	  b parent class_ref 134901 // EmployeeDao
      end
    end

    class 135285 "OrderController"
      visibility package 
      cpp_decl ""
      java_decl "${comment}${@}${visibility}${static}${final}${abstract}class ${name}${extends}${implements} {
${members}}
"
      php_decl ""
      python_2_2 python_decl ""
      idl_decl ""
      explicit_switch_type ""
      mysql_decl ""
      
      operation 137717 "GetTotal"
	public explicit_return_type "void"
	nparams 2
	  param in name "order" type class_ref 128903 // Order
	  param in name "item" type class_ref 129287 // Item
	
	java_def "  ${comment}${@}${visibility}${final}${static}${abstract}${synchronized}${type} ${name}${(}${t0} ${p0}, ${t1} ${p1}${)}${throws}${staticnl}{
  ${body}}
"
	
	
	
      end

      operation 137845 "isValidate"
	public explicit_return_type "bool"
	nparams 1
	  param in name "role" type class_ref 128647 // Employee
	
	java_def "  ${comment}${@}${visibility}${final}${static}${abstract}${synchronized}${type} ${name}${(}${t0} ${p0}${)}${throws}${staticnl}{
  ${body}}
"
	
	
	
      end

      operation 137973 "payOrder"
	public explicit_return_type "bool"
	nparams 1
	  param in name "role" type class_ref 128647 // Employee
	
	java_def "  ${comment}${@}${visibility}${final}${static}${abstract}${synchronized}${type} ${name}${(}${t0} ${p0}${)}${throws}${staticnl}{
  ${body}}
"
	
	
	
      end

      classrelation 136821 // <association>
	relation_ref 135669 // <association>
      end

      classrelation 136949 // <generalisation>
	relation 135797 ---|>
	  a public
	    java "${type}"
	    classrelation_ref 136949 // <generalisation>
	  b parent class_ref 134773 // OrderDao
      end
    end

    class 141813 "Budget"
      visibility package 
      cpp_decl ""
      java_decl "${comment}${@}${visibility}${static}${final}${abstract}class ${name}${extends}${implements} {
${members}}
"
      php_decl ""
      python_2_2 python_decl ""
      idl_decl ""
      explicit_switch_type ""
      mysql_decl ""
      
      attribute 141173 "id"
	private explicit_type "uint"
	cpp_decl ""
	java_decl "  ${comment}${@}${visibility}${static}${final}${transient}${volatile}${type} ${name}${value};
"
	php_decl ""
	python_decl ""
	idl_decl ""
	mysql_decl ""
	MysqlColumn
      end

      attribute 141301 "budgetValue"
	private explicit_type "float"
	cpp_decl ""
	java_decl "  ${comment}${@}${visibility}${static}${final}${transient}${volatile}${type} ${name}${value};
"
	php_decl ""
	python_decl ""
	idl_decl ""
	mysql_decl ""
	MysqlColumn
      end

      attribute 147829 "dateRefund"
	private explicit_type "Date"
	cpp_decl ""
	java_decl "  ${comment}${@}${visibility}${static}${final}${transient}${volatile}${type} ${name}${value};
"
	php_decl ""
	python_decl ""
	idl_decl ""
	mysql_decl ""
	MysqlColumn
      end

      attribute 147957 "recurrence"
	private explicit_type "Period"
	cpp_decl ""
	java_decl "  ${comment}${@}${visibility}${static}${final}${transient}${volatile}${type} ${name}${value};
"
	php_decl ""
	python_decl ""
	idl_decl ""
	mysql_decl ""
	MysqlColumn
      end

      attribute 148085 "actualBudget"
	private explicit_type "float"
	cpp_decl ""
	java_decl "  ${comment}${@}${visibility}${static}${final}${transient}${volatile}${type} ${name}${value};
"
	php_decl ""
	python_decl ""
	idl_decl ""
	mysql_decl ""
	MysqlColumn
      end

      attribute 148213 "tresory"
	private explicit_type "float"
	cpp_decl ""
	java_decl "  ${comment}${@}${visibility}${static}${final}${transient}${volatile}${type} ${name}${value};
"
	php_decl ""
	python_decl ""
	idl_decl ""
	mysql_decl ""
	MysqlColumn
      end

      classrelation 144629 // <association>
	relation 143349 ----
	  a role_name "" private
	    java "  ${comment}${@}${visibility}${static}${final}${transient}${volatile}${type} ${name}${value};
"
	    classrelation_ref 144629 // <association>
	  b role_name "" private
	    java "  ${comment}${@}${visibility}${static}${final}${transient}${volatile}${type} ${name}${value};
"
	    classrelation_ref 144757 // <association>
      end
    end

    class 148341 "BudgetDao"
      visibility package 
      cpp_decl ""
      java_decl "${comment}${@}${visibility}${static}${final}${abstract}class ${name}${extends}${implements} {
${members}}
"
      php_decl ""
      python_2_2 python_decl ""
      idl_decl ""
      explicit_switch_type ""
      mysql_decl ""
      
      operation 145013 "deductTresoryByOrder"
	public explicit_return_type "float"
	nparams 2
	  param in name "tresory" explicit_type "float"
	  param in name "orderPrice" explicit_type "float"
	
	java_def "  ${comment}${@}${visibility}${final}${static}${abstract}${synchronized}${type} ${name}${(}${t0} ${p0}, ${t1} ${p1}${)}${throws}${staticnl}{
  ${body}}
"
	
	
	
      end

      operation 144885 "deductBudgetbyOrder"
	public explicit_return_type "float"
	nparams 2
	  param in name "actualBudget" explicit_type "float"
	  param in name "order" type class_ref 128903 // Order
	
	java_def "  ${comment}${@}${visibility}${final}${static}${abstract}${synchronized}${type} ${name}${(}${t0} ${p0}, ${t1} ${p1}${)}${throws}${staticnl}{
  ${body}}
"
	
	
	
      end

      operation 144757 "showMonthlyBudget"
	public explicit_return_type "float"
	nparams 1
	  param in name "budgetValue" explicit_type "float"
	
	java_def "  ${comment}${@}${visibility}${final}${static}${abstract}${synchronized}${type} ${name}${(}${t0} ${p0}${)}${throws}${staticnl}{
  ${body}}
"
	
	
	
      end

      operation 144629 "refundYearly"
	public explicit_return_type "bool"
	nparams 1
	  param in name "dateTime" explicit_type "Date"
	
	java_def "  ${comment}${@}${visibility}${final}${static}${abstract}${synchronized}${type} ${name}${(}${t0} ${p0}${)}${throws}${staticnl}{
  ${body}}
"
	
	
	
      end

      classrelation 144885 // <dependency>
	relation 143477 -_->
	  a public
	    classrelation_ref 144885 // <dependency>
	  b parent class_ref 141813 // Budget
      end
    end

    class 148469 "BudgetController"
      visibility package 
      cpp_decl ""
      java_decl "${comment}${@}${visibility}${static}${final}${abstract}class ${name}${extends}${implements} {
${members}}
"
      php_decl ""
      python_2_2 python_decl ""
      idl_decl ""
      explicit_switch_type ""
      mysql_decl ""
      
      classrelation 145013 // <generalisation>
	relation 143605 ---|>
	  a public
	    java "${type}"
	    classrelation_ref 145013 // <generalisation>
	  b parent class_ref 148341 // BudgetDao
      end
    end
  end

  deploymentview 128135 "DiagrammeClasse"
    //deployment diagram settings
    deploymentdiagramsettings
     end
  end

  classview 134645 "ModèleDiag"
    
    classdiagramsettings member_max_width 0 end
    
    classcompositediagramsettings end
    
    collaborationdiagramsettings end
    
    objectdiagramsettings end
    
    objectcompositediagramsettings end
    
    sequencediagramsettings end
    
    statediagramsettings
     end
    
    
    activitydiagramsettings
     end
    classdiagram 134773 "ModèleDiag"
      classdiagramsettings draw_all_relations no member_max_width 0 end
      size A0
    end
  end
end
